null,null,0.0,0.0,created new account,20194201,Fri Apr 24 22:10:20 CAT 2020
null,null,0.0,0.0,checked account balance,20194201,Fri Apr 24 22:53:38 CAT 2020
null,null,0.0,0.0,selected all account,20194201,Fri Apr 24 22:53:49 CAT 2020
12930076,null,0.0,8000.0,created new account,20194201,Fri Apr 24 22:54:32 CAT 2020
1138109975,null,0.0,0.0,authentication done to account,20194201,Fri Apr 24 22:55:04 CAT 2020
1138109975,null,0.0,900.0,created new account,20194201,Fri Apr 24 22:55:24 CAT 2020
1138109975,null,0.0,0.0,saved money to account individual,20194201,Fri Apr 24 22:55:25 CAT 2020
1138109975,null,0.0,800.0,created new account,20194201,Fri Apr 24 22:56:18 CAT 2020
1138109975,11992923,0.0,800.0,foreign exchange,20194201,Fri Apr 24 22:56:18 CAT 2020
null,null,0.0,0.0,checked all transaction,20194202,Sat Apr 25 12:34:28 CAT 2020
null,null,0.0,0.0,checked all transaction,20194202,Sat Apr 25 12:48:26 CAT 2020
null,null,0.0,0.0,checked all transaction,20194202,Sat Apr 25 13:34:03 CAT 2020
null,null,0.0,0.0,selected all account,20194202,Sat Apr 25 13:37:48 CAT 2020
null,null,0.0,0.0,checked all transaction,20194202,Sat Apr 25 13:38:01 CAT 2020
